<svg
	viewBox="0 0 24 24"
	preserveAspectRatio="xMidYMid meet"
	focusable="false"
>
	<g>
		<path d="M12.26,16.18l-2.93-2.87c-0.8,0.86-1.64,1.71-2.48,2.54L4.6,18.1L3.9,17.4l2.25-2.25c0.84-0.84,1.68-1.69,2.48-2.55 c-1.18-1.23-2.17-2.64-2.9-4.18L5.73,8.4h1.14c0.65,1.26,1.47,2.43,2.44,3.45c1.59-1.81,2.89-3.69,3.43-5.7H2.08v-1h6.65V3h1v2.15 h6.78v1h-2.73c-0.54,2.32-2.01,4.42-3.77,6.42l2.63,2.58C12.51,15.5,12.39,15.82,12.26,16.18z M21.51,21.01h-0.95l-1.12-3.04h-4.91 l-1.11,3.04h-0.96l4.09-10.81h0.87L21.51,21.01z M19.15,17.2l-2.17-5.89l-2.17,5.89H19.15z"></path>
	</g>
</svg>